%YAML 1.1
%TAG !u! tag:unity3d.com,2011:
--- !u!21 &2100000
Material:
  serializedVersion: 6
  m_ObjectHideFlags: 0
  m_PrefabParentObject: {fileID: 0}
  m_PrefabInternal: {fileID: 0}
  m_Name: Water_Surface(OCEAN) - Demo 2
  m_Shader: {fileID: 4800000, guid: e0473b6cc6d2755438512c918c3b304e, type: 3}
  m_ShaderKeywords: _USEDISPWAVES_ON _USEMASK_ON _USERADIALMASK_ON
  m_LightmapFlags: 0
  m_EnableInstancingVariants: 0
  m_DoubleSidedGI: 0
  m_CustomRenderQueue: 3000
  stringTagMap: {}
  disabledShaderPasses: []
  m_SavedProperties:
    serializedVersion: 3
    m_TexEnvs:
    - _BumpMap:
        m_Texture: {fileID: 0}
        m_Scale: {x: 1, y: 1}
        m_Offset: {x: 0, y: 0}
    - _DetailAlbedoMap:
        m_Texture: {fileID: 0}
        m_Scale: {x: 1, y: 1}
        m_Offset: {x: 0, y: 0}
    - _DetailMask:
        m_Texture: {fileID: 0}
        m_Scale: {x: 1, y: 1}
        m_Offset: {x: 0, y: 0}
    - _DetailNormalMap:
        m_Texture: {fileID: 0}
        m_Scale: {x: 1, y: 1}
        m_Offset: {x: 0, y: 0}
    - _Displacement:
        m_Texture: {fileID: 2800000, guid: 423fc72863e62ea41849031296366b29, type: 3}
        m_Scale: {x: 1, y: 1}
        m_Offset: {x: 0, y: 0}
    - _DisplacementMask:
        m_Texture: {fileID: 2800000, guid: 77631be9fde1502449409a785cd40831, type: 3}
        m_Scale: {x: 1, y: 1}
        m_Offset: {x: 0, y: 0}
    - _DisplacementWaves:
        m_Texture: {fileID: 2800000, guid: 1494fa713d330b84b9ce081df7b5c0c0, type: 3}
        m_Scale: {x: 1, y: 1}
        m_Offset: {x: 0, y: 0}
    - _DisplacementWavesMask:
        m_Texture: {fileID: 2800000, guid: 7b9931086ba20034b9338c30bd3f33b1, type: 3}
        m_Scale: {x: 1, y: 1}
        m_Offset: {x: 0, y: 0}
    - _EmissionMap:
        m_Texture: {fileID: 0}
        m_Scale: {x: 1, y: 1}
        m_Offset: {x: 0, y: 0}
    - _Foam:
        m_Texture: {fileID: 2800000, guid: 009fda13b82fc2d4bbd161e04c6c8dfe, type: 3}
        m_Scale: {x: 1, y: 1}
        m_Offset: {x: 0, y: 0}
    - _MainTex:
        m_Texture: {fileID: 0}
        m_Scale: {x: 1, y: 1}
        m_Offset: {x: 0, y: 0}
    - _MetallicGlossMap:
        m_Texture: {fileID: 0}
        m_Scale: {x: 1, y: 1}
        m_Offset: {x: 0, y: 0}
    - _OcclusionMap:
        m_Texture: {fileID: 0}
        m_Scale: {x: 1, y: 1}
        m_Offset: {x: 0, y: 0}
    - _ParallaxMap:
        m_Texture: {fileID: 0}
        m_Scale: {x: 1, y: 1}
        m_Offset: {x: 0, y: 0}
    - _ReflectionTex:
        m_Texture: {fileID: 0}
        m_Scale: {x: 1, y: 1}
        m_Offset: {x: 0, y: 0}
    - _WaveA:
        m_Texture: {fileID: 2800000, guid: a0c55168c4eb26646a6bd97b7c8e4da0, type: 3}
        m_Scale: {x: 1, y: 1}
        m_Offset: {x: 0, y: 0}
    - _WaveB:
        m_Texture: {fileID: 2800000, guid: a0c55168c4eb26646a6bd97b7c8e4da0, type: 3}
        m_Scale: {x: 1, y: 1}
        m_Offset: {x: 0, y: 0}
    - _WaveMask:
        m_Texture: {fileID: 0}
        m_Scale: {x: 1, y: 1}
        m_Offset: {x: 0, y: 0}
    - _WavesDisplacement:
        m_Texture: {fileID: 0}
        m_Scale: {x: 1, y: 1}
        m_Offset: {x: 0, y: 0}
    - _WavesMask:
        m_Texture: {fileID: 2800000, guid: a4996dfd265554b40a7b0d1e42a4b937, type: 3}
        m_Scale: {x: 1, y: 1}
        m_Offset: {x: 0, y: 0}
    - _node_4966:
        m_Texture: {fileID: 0}
        m_Scale: {x: 1, y: 1}
        m_Offset: {x: 0, y: 0}
    m_Floats:
    - _BumpScale: 1
    - _ColorIntensity: 0
    - _Cutoff: 0.5
    - _DX11Displacement: 0
    - _DepthBlend: 0.09
    - _DetailNormalMapScale: 1
    - _DispMaskIntensity: 0
    - _DispWavesAmount: 0.048
    - _DispWavesFoamIntensity: 0.25
    - _DispWavesIntensity: 0.07
    - _DispWavesSpeed: 0.316
    - _DisplacementDirection: 0.5
    - _DisplacementFrecuency: 0.6787091
    - _DisplacementPower: 0.05
    - _DisplacementScale: 0.3
    - _DisplacementSize: 0.03
    - _DisplacementSpeed: 2
    - _DstBlend: 0
    - _FoamDepth: 0
    - _FoamDisntance: 0.04
    - _FoamDistance: 0.32
    - _FoamIntensity: 0.301
    - _FoamScale: 1024
    - _FoamShore: 0.09
    - _FoamSize: 0.35
    - _FoamSpeed: 1
    - _Fresnel: 0
    - _FresnelSaturation: 1
    - _Gloss: 0.96
    - _Glossiness: 0.5
    - _InverseDirection: 0
    - _InverseWaves: 0
    - _MaskPower: 0.9246519
    - _MaskRotation: 0
    - _MaskScale: 0.23
    - _MaskSpeed: 1
    - _MaskedWaves: -0.0312102
    - _Metallic: 0
    - _Mode: 0
    - _NormalIntensity: 0
    - _OcclusionStrength: 1
    - _Opacity: 0.74
    - _OverallOpacity: 0.9
    - _Parallax: 0.02
    - _ReflectionDistortion: 0.04
    - _ReflectionFresnel: 0
    - _ReflectionIntensity: 0.427
    - _RefractionAmount: 0.41
    - _RefractionDistortion: 0
    - _RefractionPower: 0
    - _ScaleFade: 0.11
    - _ShoreBlend: 0.18
    - _ShowWaves: 0
    - _Specular: 18
    - _SrcBlend: 1
    - _TesselationLevel: 1
    - _UVSec: 0
    - _UseAdditionalWaves: 0
    - _UseDispWaves: 1
    - _UseDisplacement: 1
    - _UseMask: 1
    - _UseRadialMask: 1
    - _WaveFoam: 1
    - _WaveScale: 32
    - _WaveScaleA: 0
    - _WaveScaleB: 0
    - _WaveSpeed: 0.301
    - _WavesFoam: 0.276
    - _WavesFresnel: 0.731
    - _WavesScale: 0.3713441
    - _ZWrite: 1
    - _node_7333: 0
    m_Colors:
    - _Color: {r: 1, g: 1, b: 1, a: 1}
    - _DeepColor: {r: 0, g: 0.2799286, b: 0.35295355, a: 1}
    - _EmissionColor: {r: 0, g: 0, b: 0, a: 1}
    - _ShallowColor: {r: 0.5313636, g: 0.7941206, b: 0.7832479, a: 0.553}
